[gd_scene load_steps=3 format=3 uid="uid://di18ny0wr2ffn"]

[ext_resource type="PackedScene" uid="uid://b8vcv3r5dhd1c" path="res://src/templates/ability.tscn" id="1_2o2j4"]
[ext_resource type="Script" path="res://src/scripts/player/abilities/rp.gd" id="2_26v8k"]

[node name="RP" instance=ExtResource("1_2o2j4")]
script = ExtResource("2_26v8k")
ability_name = "Reverse Polarity"
ability_icon = "/home/pypypy/new_game/assets/textures/abilities/Reverse_Polarity_icon.webp"
