[gd_scene load_steps=3 format=3 uid="uid://6aner6qpsb4v"]

[ext_resource type="PackedScene" uid="uid://b8vcv3r5dhd1c" path="res://src/templates/ability.tscn" id="1_pn6p3"]
[ext_resource type="Script" path="res://src/scripts/player/abilities/shockwave.gd" id="2_vuyv4"]

[node name="Shockwave" instance=ExtResource("1_pn6p3")]
script = ExtResource("2_vuyv4")
ability_name = "Shockwave"
cooldown = 5.0
ability_icon = "/home/pypypy/new_game/assets/textures/abilities/Shockwave_icon.webp"
ability_event_scene = "res://src/templates/Abilities/Event/shockwave_event.tscn"
